[
  {
    "description": "Make TASK_DEFINITION variable optional. It could be useful when FORCE_NEW_DEPLOYMENT variable used. Use this option if you need to trigger a new deployment with no service definition changes: if your updated Docker image uses the same tag as what is in the existing task definition for your service (for example, my_image:latest).",
    "type": "minor"
  }
]